<svg xmlns="http://www.w3.org/2000/svg" width="16" height="16" fill="none">
    <g fill="#FFFFFF" clip-path="url(#clip0)">
        <path d="M13.2326 1.884h-2.1363V.4958c0-.2795-.2254-.4958-.5048-.4958-.0271 0-.0452.009-.054.018C10.5284.009 10.5103 0 10.5013 0h-5.093c-.2794 0-.4957.2163-.4957.4958V1.884H2.7673c-.6131 0-1.0908.4777-1.0908 1.0907V4.7595h.9465v10.1588c0 .6131.4687 1.0817 1.0817 1.0817h8.5904c.6131 0 1.0908-.4686 1.0908-1.0817V4.7595h.9374V2.9747c0-.613-.4778-1.0907-1.0907-1.0907zM5.9041.9915h4.1916v.8925H5.9041V.9915zm6.4812 13.9268c0 .0633-.0271.0902-.0902.0902H3.7047c-.063 0-.0901-.0269-.0901-.0902V4.7595h8.7707v10.1588zm.9375-11.1503H2.6771v-.7933c0-.063.027-.0992.0901-.0992h10.4654c.0631 0 .0902.0361.0902.0992v.7933z"/>
        <path d="M10.8169 5.9224H9.8163v8.2027h1.0006V5.9224zM8.5091 5.9224H7.5087v8.2027h1.0005V5.9224zM6.2015 5.9224H5.201v8.2027h1.0005V5.9224z"/>
    </g>
    <defs>
        <clipPath id="clip0"><path fill="#fff" d="M0 0h16v16H0z"/></clipPath>
    </defs>
</svg>